{
	"frames": {
		"pohon.png": {
			"frame": {
				"x": 1,
				"y": 128,
				"w": 60,
				"h": 100
			},
			"rotated": false,
			"trimmed": false,
			"spriteSourceSize": {
				"x": 1,
				"y": 128,
				"w": 1,
				"h": 1
			},
			"sourceSize": {
				"w": 1,
				"h": 1
			}
		}
	},
	"meta": {
		"app": "http://www.codeandweb.com/texturepacker",
		"version": "1.0",
		"image": "tile.png",
		"format": "RGBA8888",
		"size": {
			"w": 10,
			"h": 10
		},
		"scale": "1"
	}
}