{
	"frames": {
		"1.jpg": {
			"frame": {
				"x": 1,
				"y": 1,
				"w": 130,
				"h": 96
			},
			"rotated": false,
			"trimmed": false,
			"spriteSourceSize": {
				"x": 0,
				"y": 0,
				"w": 130,
				"h": 96
			},
			"sourceSize": {
				"w": 130,
				"h": 96
			}
		},
		"2.jpg": {
			"frame": {
				"x": 133,
				"y": 1,
				"w": 126,
				"h": 102
			},
			"rotated": false,
			"trimmed": false,
			"spriteSourceSize": {
				"x": 0,
				"y": 0,
				"w": 126,
				"h": 102
			},
			"sourceSize": {
				"w": 126,
				"h": 102
			}
		},
		"3.jpg": {
			"frame": {
				"x": 261,
				"y": 1,
				"w": 126,
				"h": 102
			},
			"rotated": false,
			"trimmed": false,
			"spriteSourceSize": {
				"x": 0,
				"y": 0,
				"w": 126,
				"h": 102
			},
			"sourceSize": {
				"w": 126,
				"h": 102
			}
		},
		"4.jpg": {
			"frame": {
				"x": 389,
				"y": 1,
				"w": 126,
				"h": 102
			},
			"rotated": false,
			"trimmed": false,
			"spriteSourceSize": {
				"x": 0,
				"y": 0,
				"w": 126,
				"h": 102
			},
			"sourceSize": {
				"w": 126,
				"h": 102
			}
		},
		"5.jpg": {
			"frame": {
				"x": 517,
				"y": 1,
				"w": 126,
				"h": 102
			},
			"rotated": false,
			"trimmed": false,
			"spriteSourceSize": {
				"x": 0,
				"y": 0,
				"w": 126,
				"h": 102
			},
			"sourceSize": {
				"w": 126,
				"h": 102
			}
		},
		"6.jpg": {
			"frame": {
				"x": 645,
				"y": 1,
				"w": 126,
				"h": 102
			},
			"rotated": false,
			"trimmed": false,
			"spriteSourceSize": {
				"x": 0,
				"y": 0,
				"w": 126,
				"h": 102
			},
			"sourceSize": {
				"w": 126,
				"h": 102
			}
		},
		"7.jpg": {
			"frame": {
				"x": 773,
				"y": 1,
				"w": 134,
				"h": 102
			},
			"rotated": false,
			"trimmed": false,
			"spriteSourceSize": {
				"x": 0,
				"y": 0,
				"w": 134,
				"h": 102
			},
			"sourceSize": {
				"w": 134,
				"h": 102
			}
		},
		"8.jpg": {
			"frame": {
				"x": 909,
				"y": 1,
				"w": 139,
				"h": 102
			},
			"rotated": false,
			"trimmed": false,
			"spriteSourceSize": {
				"x": 0,
				"y": 0,
				"w": 139,
				"h": 102
			},
			"sourceSize": {
				"w": 139,
				"h": 102
			}
		},
		"9.jpg": {
			"frame": {
				"x": 1050,
				"y": 1,
				"w": 134,
				"h": 102
			},
			"rotated": false,
			"trimmed": false,
			"spriteSourceSize": {
				"x": 0,
				"y": 0,
				"w": 134,
				"h": 102
			},
			"sourceSize": {
				"w": 134,
				"h": 102
			}
		}
	},
	"meta": {
		"app": "http://www.codeandweb.com/texturepacker",
		"version": "1.0",
		"image": "spritesheet.png",
		"format": "RGBA8888",
		"size": {
			"w": 1185,
			"h": 104
		},
		"scale": "1"
	}
}