{
	"frames": {
		"frame_0_delay-0.08s.gif": {
			"frame": {
				"x": 1,
				"y": 1,
				"w": 50,
				"h": 50
			},
			"rotated": false,
			"trimmed": false,
			"spriteSourceSize": {
				"x": 0,
				"y": 0,
				"w": 50,
				"h": 50
			},
			"sourceSize": {
				"w": 50,
				"h": 50
			}
		},
		"frame_1_delay-0.08s.gif": {
			"frame": {
				"x": 53,
				"y": 1,
				"w": 50,
				"h": 50
			},
			"rotated": false,
			"trimmed": false,
			"spriteSourceSize": {
				"x": 0,
				"y": 0,
				"w": 50,
				"h": 50
			},
			"sourceSize": {
				"w": 50,
				"h": 50
			}
		},
		"frame_2_delay-0.08s.gif": {
			"frame": {
				"x": 105,
				"y": 1,
				"w": 50,
				"h": 50
			},
			"rotated": false,
			"trimmed": false,
			"spriteSourceSize": {
				"x": 0,
				"y": 0,
				"w": 50,
				"h": 50
			},
			"sourceSize": {
				"w": 50,
				"h": 50
			}
		},
		"frame_3_delay-0.08s.gif": {
			"frame": {
				"x": 157,
				"y": 1,
				"w": 50,
				"h": 50
			},
			"rotated": false,
			"trimmed": false,
			"spriteSourceSize": {
				"x": 0,
				"y": 0,
				"w": 50,
				"h": 50
			},
			"sourceSize": {
				"w": 50,
				"h": 50
			}
		},
		"frame_4_delay-0.08s.gif": {
			"frame": {
				"x": 209,
				"y": 1,
				"w": 50,
				"h": 50
			},
			"rotated": false,
			"trimmed": false,
			"spriteSourceSize": {
				"x": 0,
				"y": 0,
				"w": 50,
				"h": 50
			},
			"sourceSize": {
				"w": 50,
				"h": 50
			}
		}
	},
	"meta": {
		"app": "http://www.codeandweb.com/texturepacker",
		"version": "1.0",
		"image": "spritesheet.png",
		"format": "RGBA8888",
		"size": {
			"w": 260,
			"h": 52
		},
		"scale": "1"
	}
}