{
	"frames": {
		"attack_0_delay-0.08s.gif": {
			"frame": {
				"x": 0,
				"y": 0,
				"w": 50,
				"h": 50
			},
			"rotated": false,
			"trimmed": false,
			"spriteSourceSize": {
				"x": 0,
				"y": 0,
				"w": 50,
				"h": 50
			},
			"sourceSize": {
				"w": 50,
				"h": 50
			}
		},
		"attack_1_delay-0.08s.gif": {
			"frame": {
				"x": 50,
				"y": 0,
				"w": 50,
				"h": 50
			},
			"rotated": false,
			"trimmed": false,
			"spriteSourceSize": {
				"x": 0,
				"y": 0,
				"w": 50,
				"h": 50
			},
			"sourceSize": {
				"w": 50,
				"h": 50
			}
		},
		"attack_2_delay-0.08s.gif": {
			"frame": {
				"x": 100,
				"y": 0,
				"w": 50,
				"h": 50
			},
			"rotated": false,
			"trimmed": false,
			"spriteSourceSize": {
				"x": 0,
				"y": 0,
				"w": 50,
				"h": 50
			},
			"sourceSize": {
				"w": 50,
				"h": 50
			}
		},
		"attack_3_delay-0.04s.gif": {
			"frame": {
				"x": 150,
				"y": 0,
				"w": 50,
				"h": 50
			},
			"rotated": false,
			"trimmed": false,
			"spriteSourceSize": {
				"x": 0,
				"y": 0,
				"w": 50,
				"h": 50
			},
			"sourceSize": {
				"w": 50,
				"h": 50
			}
		},
		"attack_4_delay-0.08s.gif": {
			"frame": {
				"x": 0,
				"y": 50,
				"w": 50,
				"h": 50
			},
			"rotated": false,
			"trimmed": false,
			"spriteSourceSize": {
				"x": 0,
				"y": 0,
				"w": 50,
				"h": 50
			},
			"sourceSize": {
				"w": 50,
				"h": 50
			}
		},
		"attack_5_delay-0.08s.gif": {
			"frame": {
				"x": 50,
				"y": 50,
				"w": 50,
				"h": 50
			},
			"rotated": false,
			"trimmed": false,
			"spriteSourceSize": {
				"x": 0,
				"y": 0,
				"w": 50,
				"h": 50
			},
			"sourceSize": {
				"w": 50,
				"h": 50
			}
		},
		"attack_6_delay-0.08s.gif": {
			"frame": {
				"x": 100,
				"y": 50,
				"w": 50,
				"h": 50
			},
			"rotated": false,
			"trimmed": false,
			"spriteSourceSize": {
				"x": 0,
				"y": 0,
				"w": 50,
				"h": 50
			},
			"sourceSize": {
				"w": 50,
				"h": 50
			}
		},
		"attack_7_delay-0.08s.gif": {
			"frame": {
				"x": 150,
				"y": 50,
				"w": 50,
				"h": 50
			},
			"rotated": false,
			"trimmed": false,
			"spriteSourceSize": {
				"x": 0,
				"y": 0,
				"w": 50,
				"h": 50
			},
			"sourceSize": {
				"w": 50,
				"h": 50
			}
		},
		"die_00_delay-0.08s.gif": {
			"frame": {
				"x": 0,
				"y": 100,
				"w": 50,
				"h": 50
			},
			"rotated": false,
			"trimmed": false,
			"spriteSourceSize": {
				"x": 0,
				"y": 0,
				"w": 50,
				"h": 50
			},
			"sourceSize": {
				"w": 50,
				"h": 50
			}
		},
		"die_01_delay-0.08s.gif": {
			"frame": {
				"x": 50,
				"y": 100,
				"w": 50,
				"h": 50
			},
			"rotated": false,
			"trimmed": false,
			"spriteSourceSize": {
				"x": 0,
				"y": 0,
				"w": 50,
				"h": 50
			},
			"sourceSize": {
				"w": 50,
				"h": 50
			}
		},
		"die_02_delay-0.08s.gif": {
			"frame": {
				"x": 100,
				"y": 100,
				"w": 50,
				"h": 50
			},
			"rotated": false,
			"trimmed": false,
			"spriteSourceSize": {
				"x": 0,
				"y": 0,
				"w": 50,
				"h": 50
			},
			"sourceSize": {
				"w": 50,
				"h": 50
			}
		},
		"die_03_delay-0.08s.gif": {
			"frame": {
				"x": 150,
				"y": 100,
				"w": 50,
				"h": 50
			},
			"rotated": false,
			"trimmed": false,
			"spriteSourceSize": {
				"x": 0,
				"y": 0,
				"w": 50,
				"h": 50
			},
			"sourceSize": {
				"w": 50,
				"h": 50
			}
		},
		"die_04_delay-0.08s.gif": {
			"frame": {
				"x": 0,
				"y": 150,
				"w": 50,
				"h": 50
			},
			"rotated": false,
			"trimmed": false,
			"spriteSourceSize": {
				"x": 0,
				"y": 0,
				"w": 50,
				"h": 50
			},
			"sourceSize": {
				"w": 50,
				"h": 50
			}
		},
		"die_05_delay-0.08s.gif": {
			"frame": {
				"x": 50,
				"y": 150,
				"w": 50,
				"h": 50
			},
			"rotated": false,
			"trimmed": false,
			"spriteSourceSize": {
				"x": 0,
				"y": 0,
				"w": 50,
				"h": 50
			},
			"sourceSize": {
				"w": 50,
				"h": 50
			}
		},
		"die_06_delay-0.08s.gif": {
			"frame": {
				"x": 100,
				"y": 150,
				"w": 50,
				"h": 50
			},
			"rotated": false,
			"trimmed": false,
			"spriteSourceSize": {
				"x": 0,
				"y": 0,
				"w": 50,
				"h": 50
			},
			"sourceSize": {
				"w": 50,
				"h": 50
			}
		},
		"die_07_delay-0.08s.gif": {
			"frame": {
				"x": 150,
				"y": 150,
				"w": 50,
				"h": 50
			},
			"rotated": false,
			"trimmed": false,
			"spriteSourceSize": {
				"x": 0,
				"y": 0,
				"w": 50,
				"h": 50
			},
			"sourceSize": {
				"w": 50,
				"h": 50
			}
		},
		"walk_0_delay-0.08s.gif": {
			"frame": {
				"x": 200,
				"y": 0,
				"w": 50,
				"h": 50
			},
			"rotated": false,
			"trimmed": false,
			"spriteSourceSize": {
				"x": 0,
				"y": 0,
				"w": 50,
				"h": 50
			},
			"sourceSize": {
				"w": 50,
				"h": 50
			}
		},
		"walk_1_delay-0.08s.gif": {
			"frame": {
				"x": 200,
				"y": 50,
				"w": 50,
				"h": 50
			},
			"rotated": false,
			"trimmed": false,
			"spriteSourceSize": {
				"x": 0,
				"y": 0,
				"w": 50,
				"h": 50
			},
			"sourceSize": {
				"w": 50,
				"h": 50
			}
		},
		"walk_2_delay-0.08s.gif": {
			"frame": {
				"x": 200,
				"y": 100,
				"w": 50,
				"h": 50
			},
			"rotated": false,
			"trimmed": false,
			"spriteSourceSize": {
				"x": 0,
				"y": 0,
				"w": 50,
				"h": 50
			},
			"sourceSize": {
				"w": 50,
				"h": 50
			}
		},
		"walk_3_delay-0.08s.gif": {
			"frame": {
				"x": 200,
				"y": 150,
				"w": 50,
				"h": 50
			},
			"rotated": false,
			"trimmed": false,
			"spriteSourceSize": {
				"x": 0,
				"y": 0,
				"w": 50,
				"h": 50
			},
			"sourceSize": {
				"w": 50,
				"h": 50
			}
		},
		"walk_4_delay-0.08s.gif": {
			"frame": {
				"x": 0,
				"y": 200,
				"w": 50,
				"h": 50
			},
			"rotated": false,
			"trimmed": false,
			"spriteSourceSize": {
				"x": 0,
				"y": 0,
				"w": 50,
				"h": 50
			},
			"sourceSize": {
				"w": 50,
				"h": 50
			}
		}
	},
	"meta": {
		"app": "http://www.codeandweb.com/texturepacker",
		"version": "1.0",
		"image": "spritesheet.png",
		"format": "RGBA8888",
		"size": {
			"w": 250,
			"h": 250
		},
		"scale": "1"
	}
}